sku,name,url_key,short_description,description,meta_title,meta_description,weight,height,color,size,qty,price,product_type,product_websites,attribute_set_code,configurable_variations,configurable_variation_labels,visibility
Connect Fitness Vibration Machine Platform - Power Fit Gym Exercise Equipment,Connect Fitness Vibration Machine Platform - Power Fit Gym Exercise Equipment,connect-fitness-vibration-machine-platform-power-fit-gym-exercise-equipment,Connect Fitness Vibration Machine Platform - Power Fit Gym Exercise Equipment,"<meta charset=""utf-8"">
<p>The Connect Fitness vibration machine uses the same technology developed for astronauts to rebuild muscle and bone density post space missions. Now employed by Olympians and professional athletes to enhance performance. The oscillating vibration creates instability, forcing the muscles to work harder &amp; increasing muscle contractions (20-50 per second). The result, a 10 minute workout on the Connect Fitness vibration machine is equivalent to 1 hour of regular exercise. Upgraded to 1500W &amp; 99 speed levels and supplied with a set of free resistance bands, you are guaranteed to see results from regular use of the Connect Fitness vibration machine. Suitable for all ages &amp; fitness levels*, everyone can now harness the power of this space age technology.</p>
<p><strong>FEATURES</strong></p>
<ul>
<li><span style=""line-height: 1.4;"">Increased metabolism, burns more fat!</span></li>
<li><span style=""line-height: 1.4;"">Improve flexibility &amp; range of motion</span></li>
<li><span style=""line-height: 1.4;"">Stabilises the core</span></li>
<li><span style=""line-height: 1.4;"">Enhanced neuromuscular function</span></li>
<li><span style=""line-height: 1.4;"">Improves blood circulation</span></li>
<li><span style=""line-height: 1.4;"">Aids in pain reduction</span></li>
<li><span style=""line-height: 1.4;"">Improves bone mineral density</span></li>
<li><span style=""line-height: 1.4;"">Regulates hormone production</span></li>
<li><span style=""line-height: 1.4;"">Improves recovery</span></li>
<li><span style=""line-height: 1.4;"">Low stress on joints</span></li>
</ul>
<p><strong>SPECIFICATIONS</strong></p>
<ul>
<li><span style=""line-height: 1.4;"">99 speed levels</span></li>
<li><span style=""line-height: 1.4;"">Voltage: 240V / 50Hz</span></li>
<li><span style=""line-height: 1.4;"">Max User Weight: 150KG</span></li>
<li><span style=""line-height: 1.4;"">Amplitude: 0-10mm</span></li>
<li><span style=""line-height: 1.4;"">Power: 1500W</span></li>
<li><span style=""line-height: 1.4;"">Product Dimensions: 76 x 46 x 12.5cm</span></li>
<li><span style=""line-height: 1.4;"">Weight: 18KG</span></li>
</ul>
<p><strong>IN THE BOX</strong></p>
<ul>
<li><span style=""line-height: 1.4;"">Connect Fitness Vibration Machine</span></li>
<li><span style=""line-height: 1.4;"">FREE resistance bands</span></li>
<li><span style=""line-height: 1.4;"">Remote Control (2xAAA batteries not included)</span></li>
<li><span style=""line-height: 1.4;"">Manual</span></li>
<li><span style=""line-height: 1.4;"">Power Cord</span></li>
</ul>
<p><span style=""line-height: 1.4;"">* People with hypertension, bronchitis, heart or skin disease, diabetes, pregnant women, or other diseases should consult with their physician prior to using this product.</span></p>",Connect Fitness Vibration Machine Platform - Power Fit Gym Exercise Equipment,,,,,,,,configurable,base,Default,"sku=MYOZ0041,color=Black|sku=MYOZ0040,color=Red|sku=MYOZ0066,color=White|sku=MYOZ0038,color=Gold|sku=MYOZ0039,color=Pink",color=Color,"Catalog, Search"
Sear Sausage Maker & Filler 3L 5L 7L - Stainless Steel Vertical Stuffer,Sear Sausage Maker & Filler 3L 5L 7L - Stainless Steel Vertical Stuffer,sausage-maker-filler-3l-5l-7l-stainless-steel-machine,Sear Sausage Maker & Filler 3L 5L 7L - Stainless Steel Vertical Stuffer,"<meta charset=""utf-8"">
<p><span><img src=""https://cdn.shopify.com/s/files/1/0394/3053/files/FREE-SHIP_large.png?12000029830817078778"" width=""163"" height=""100""></span></p>
<p><span>Want to make your own gourmet sausages?! Then look no further than the Sear Kitchen Sausage Filler, it is ideal for both the domestic chef and restaurants wishing to make sausages in house. Supplied with everything you need for perfect sausages, it features an easy clean removable barrel, dual speed gears and 4 filling funnels.</span><span> The barrel is tilt back and removable, tilt back for easy refill and removed for cleaning. An air valve in the piston &amp; reduced barrel friction prevents your sausages from developing those annoying air bubbles. </span><span>Th</span><span>e Sear</span><span> vertical sausage filler is </span><span>jam packed</span><span> </span><span>with</span><span> superior features, guaranteed to produce perfect sausages time and time again. A great way to impress your mates at the next barbie!</span></p>
<meta charset=""utf-8"">
<p align=""left""> </p>
<p><strong> FEATURES</strong></p>
<ul>
<li>Food grade commercial stainless steel</li>
<li>Removable barrel for easy cleaning</li>
<li>Silicon Seals will last a lifetime &amp; prevent leakages</li>
<li>Air release valve to eliminate bubbles in sausages</li>
<li>Manual gearbox, twin speed - can handle any size sausage</li>
<li>Wide base &amp; non-slip rubber feet for added stability</li>
<li>Tilt back barrel for easy filling</li>
<li>x4 Sausage filling funnels</li>
</ul>
<p> <strong>SPECIFICATIONS</strong></p>
<meta charset=""utf-8"">
<ul>
<li><span style=""line-height: 1.4;"">Stainless Steel</span></li>
<li><span style=""line-height: 1.4;"">Capacity: 3L, 5L &amp; 7L</span></li>
<li><span style=""line-height: 1.4;"">Type: Vertical</span></li>
<li><span style=""line-height: 1.4;"">Sausage Funnels: 16mm, 22mm, 32mm &amp; 38mm</span></li>
<li>Weight: 11, 13, 15kg</li>
</ul>
<p><strong>IN THE BOX</strong></p>
<ul>
<li>Vertical sausage stuffer</li>
<li>4 Stainless Steel Funnels</li>
</ul>",Sear Sausage Maker & Filler 3L 5L 7L - Stainless Steel Vertical Stuffer,,,,,,,,configurable,base,Default,"sku=MYOZ0074,size=7L|sku=MYOZ0031,size=5L|sku=MYOZ0030,size=3L",size=Size,"Catalog, Search"
