sku,description
MYOZ0019,"<p>The Connect Fitness 5 in 1 Elliptical Cross Trainer and exercise bike delivers low impact and calorie burning lower and upper body workouts. It can be used as an elliptical or, remove the poles and you can use as a stationary bike. The elliptical motion is extremely low impact & safe on your joints. So if you've ever struggled with running or walking, this cross trainer could be the perfect solution for you! Equipped with adjustable resistance, the elliptical trainer is also reversible, allowing you to work both the front and backs of your legs. Guaranteed to deliver maximum results whilst saving time, space and money! Track your progress and push your limits with the onboard computer displaying time, distance and calories. The connect fitness elliptical cross trainer gives your body a workout like no other, don't wait any longer and start your first step to a fitter, happier & healthier life.</p>
<p><strong>Features</strong></p>
<ul>
<li><span style=""line-height: 1.4;"">Provides total body workout</span></li>
<li><span style=""line-height: 1.4;"">Elliptical motion for low impact on joints</span></li>
<li><span style=""line-height: 1.4;"">Adjustable seat height</span></li>
<li><span style=""line-height: 1.4;"">Adjustable resistance</span></li>
<li><span style=""line-height: 1.4;"">Rubber-clad pole grips</span></li>
<li><span style=""line-height: 1.4;"">Clear LCD display of calories, time and distance</span></li>
<li><span style=""line-height: 1.4;"">Forward and reverse motion</span></li>
<li><span style=""line-height: 1.4;"">Burns more calories than cycling or swimming</span></li>
<li><span style=""line-height: 1.4;"">Industrial-strength powder-coated rustproof steel frame</span></li>
<li><span style=""line-height: 1.4;"">12 month AU warranty</span></li>
<li><span style=""line-height: 1.4;"">BONUS - free resistance bands</span></li>
<li><span style=""line-height: 1.4;"">BONUS - free aluminium water bottle</span></li>
</ul>"